{
    "fluentMethods": true,
    "relationships": [
        {
            "relationshipType": "many-to-one",
            "relationshipValidateRules": "required",
            "relationshipName": "company",
            "otherEntityName": "company",
            "otherEntityField": "name"
        },
        {
            "relationshipType": "one-to-many",
            "relationshipName": "datasources",
            "otherEntityName": "datasource",
            "otherEntityRelationshipName": "division"
        }
    ],
    "fields": [
        {
            "fieldName": "name",
            "fieldType": "String",
            "fieldValidateRules": [
                "required",
                "maxlength"
            ],
            "fieldValidateRulesMaxlength": 150
        }
    ],
    "changelogDate": "20170911065506",
    "entityTableName": "division",
    "dto": "mapstruct",
    "pagination": "no",
    "service": "no",
    "searchEngine": "elasticsearch"
}