ACTIONTYPE
Nazwa kolumny;Typ danych;Nullable;Wartość domyślna;Opis
ID;NUMBER;Nie;-brak-;Kolumna sztucznego klucza głównego
NAME;VARCHAR2;Nie;-brak-;Nazwa typu akcji



ADDRESS
Nazwa kolumny;Typ danych;Nullable;Wartość domyślna;Opis
ID;NUMBER;Nie;-brak-;Kolumna sztucznego klucza głównego
PROVINCE_NAME;VARCHAR2;Nie;-brak-;Województwo/prowincja
CITY_NAME;VARCHAR2;Nie;-brak-;Miasto
STREET_NAME;VARCHAR2;Nie;-brak-;Ulica



CHILD
Nazwa kolumny;Typ danych;Nullable;Wartość domyślna;Opis
ID;NUMBER;Nie;-brak-;Kolumna sztucznego klucza głównego
NAME;VARCHAR2;Nie;-brak-;Imię dziecka
BIRTHDATE;TIMESTAMP(6);Nie;NULL;Data urodzenia dziecka
PARENT_COUNT;NUMBER;Nie;0 ;Liczba rodziców



COMPANY
Nazwa kolumny;Typ danych;Nullable;Wartość domyślna;Opis
ID;NUMBER;Nie;-brak-;Kolumna sztucznego klucza głównego
NAME;VARCHAR2;Nie;-brak-;Nazwa firmy



CONSUMER
Nazwa kolumny;Typ danych;Nullable;Wartość domyślna;Opis
ID;NUMBER;Nie;-brak-;Kolumna sztucznego klucza głównego
FIRST_NAME;VARCHAR2;Nie;-brak-;Imię konsumenta
LAST_NAME;VARCHAR2;Nie;-brak-;Nazwisko klienta
GENDER;VARCHAR2;Nie;-brak-;Płeć klienta, dopuszczalne wartości ('MALE', 'FEMALE', 'OTHER')
EMAIL;VARCHAR2;Nie;-brak-;e-mail klienta, musi być unikalny i poprawny (zgodny ze schematem)
ACCEPTED;NUMBER;Nie;-brak-;Określa czy klient zaakceptował regulamin, dopuszczalne wartości(0, 1)
ACTIVE;NUMBER;Nie;-brak-;Określa czy klient jest aktywny, przyjmuje wartości (0, 1), dezaktywacją klienta zarządza menadżer lub osoba wprowadzająca dane
PHONE_NUMBER;VARCHAR2;Nie;-brak-;Numer telefonu klienta
USER_TYPE;VARCHAR2;Nie;-brak-;Typ klienta - określa czy klient jest lekarzem, farmaceutą, czy końcowym konsumentem, dopuszczalne wartości ('CONSUMER', 'SPECIALIST', 'OTHER')
USER_COMMENT;VARCHAR2;Nie;-brak-;Komentarz użytkownika osoby wprowadzającej do klienta
ADDRESS_ID;NUMBER;Nie;-brak-;Kolumna klucza obcego odnoszącego się do tabeli ADDRESS
DISEASES_COUNT;NUMBER;Nie;0 ;
BRANCHES_COUNT;NUMBER;Nie;0 ;
DATASOURCES_COUNT;NUMBER;Nie;-brak-;
PRODUCTS_COUNT;NUMBER;Nie;0 ;
THERAPIES_COUNT;NUMBER;Nie;0 ;



CONSUMER_BRANCHES
Nazwa kolumny;Typ danych;Nullable;Wartość domyślna;Opis
BRANCHES_ID;NUMBER;Nie;-brak-;Kolumna klucza głównego i obcego (łącząca z tabelą MEDICINEBRANCH)
CONSUMERS_ID;NUMBER;Nie;-brak-;Kolumna klucza głównego i obcego (łącząca z tabelą CONSUMER)



CONSUMER_CHILDREN
Nazwa kolumny;Typ danych;Nullable;Wartość domyślna;Opis
CHILDREN_ID;NUMBER;Nie;-brak-;Kolumna klucza głównego i obcego (łącząca z tabelą CHILD)
CONSUMERS_ID;NUMBER;Nie;-brak-;Kolumna klucza głównego i obcego (łącząca z tabelą CONSUMER)



CONSUMER_DATASOURCES
Nazwa kolumny;Typ danych;Nullable;Wartość domyślna;Opis
DATASOURCES_ID;NUMBER;Nie;-brak-;Kolumna klucza głównego i obcego (łącząca z tabelą DATASOURCE)
CONSUMERS_ID;NUMBER;Nie;-brak-;Kolumna klucza głównego i obcego (łącząca z tabelą CONSUMER)



CONSUMER_DISEASES
Nazwa kolumny;Typ danych;Nullable;Wartość domyślna;Opis
DISEASES_ID;NUMBER;Nie;-brak-;Kolumna klucza głównego i obcego (łącząca z tabelą DISEASE)
CONSUMERS_ID;NUMBER;Nie;-brak-;Kolumna klucza głównego i obcego (łącząca z tabelą CONSUMER)



CONSUMER_PRODUCTS
Nazwa kolumny;Typ danych;Nullable;Wartość domyślna;Opis
PRODUCTS_ID;NUMBER;Nie;-brak-;Kolumna klucza głównego i obcego (łącząca z tabelą PRODUCT
CONSUMERS_ID;NUMBER;Nie;-brak-;Kolumna klucza głównego i obcego (łącząca z tabelą CONSUMER)



CONSUMER_THERAPIES
Nazwa kolumny;Typ danych;Nullable;Wartość domyślna;Opis
THERAPIES_ID;NUMBER;Nie;-brak-;Kolumna klucza głównego i obcego (łącząca z tabelą THERAPY)
CONSUMERS_ID;NUMBER;Nie;-brak-;Kolumna klucza głównego i obcego (łącząca z tabelą CONSUMER)



DATASOURCE
Nazwa kolumny;Typ danych;Nullable;Wartość domyślna;Opis
ID;NUMBER;Nie;-brak-;Kolumna sztucznego klucza głównego
TITLE;VARCHAR2;Nie;-brak-;Tytuł wydarzenia promocyjnego, na którym zbierane są dane
JHI_DATE;TIMESTAMP(6);Nie;NULL;Data wydarzenia promocyjnego, na którym zbierane są dane
TURN;NUMBER;Nie;-brak-;Edycja wydarzenia promocyjnego, na którym zbierane są dane
PERSON_NAME;VARCHAR2;Nie;-brak-;Osoba odpowiedzialna za pozyskiwanie danych
ACTIONTYPE_ID;NUMBER;Nie;-brak-;Kolumna klucza obcego odnoszącego się do tabeli ACTIONTYPE
DIVISION_ID;NUMBER;Nie;-brak-;Kolumna klucza obcego



DISEASE
Nazwa kolumny;Typ danych;Nullable;Wartość domyślna;Opis
ID;NUMBER;Nie;-brak-;Kolumna sztucznego klucza głównego
NAME;VARCHAR2;Nie;-brak-;Nazwa schorzenia



DISEASE_COMPANIES
Nazwa kolumny;Typ danych;Nullable;Wartość domyślna;Opis
COMPANIES_ID;NUMBER;Nie;-brak-;Kolumna klucza głównego i obcego (łącząca z tabelą COMPANY)
DISEASES_ID;NUMBER;Nie;-brak-;Kolumna klucza głównego i obcego (łącząca z tabelą DISEASE)



DIVISION
Nazwa kolumny;Typ danych;Nullable;Wartość domyślna;Opis
ID;NUMBER;Nie;-brak-;Kolumna sztucznego klucza głównego
NAME;VARCHAR2;Nie;-brak-;Nazwy dywizji - oddziału, fili lub podfirmy
COMPANY_ID;NUMBER;Nie;-brak-;alias IDCO



MEDICINEBRANCH
Nazwa kolumny;Typ danych;Nullable;Wartość domyślna;Opis
ID;NUMBER;Nie;-brak-;Kolumna sztucznego klucza głównego
NAME;VARCHAR2;Nie;-brak-;Nazwa gałęźi medycyny



MEDICINEBRANCH_COMPANY
Nazwa kolumny;Typ danych;Nullable;Wartość domyślna;Opis
COMPANIES_ID;NUMBER;Nie;-brak-;Kolumna klucza głównego i obcego (łącząca z tabelą COMPANY)
MEDICINEBRANCHES_ID;NUMBER;Nie;-brak-;Kolumna klucza głównego i obcego (łącząca z tabelą MEDICINEBRANCH)



PRODUCT
Nazwa kolumny;Typ danych;Nullable;Wartość domyślna;Opis
ID;NUMBER;Nie;-brak-;Kolumna sztucznego klucza głównego
NAME;VARCHAR2;Nie;-brak-;Nazwa produktu
COMPANY_ID;NUMBER;Nie;-brak-;Kolumna klucza głównego (łącząca z tabelą COMPANY)



THERAPY
Nazwa kolumny;Typ danych;Nullable;Wartość domyślna;Opis
ID;NUMBER;Nie;-brak-;Kolumna sztucznego klucza głównego
NAME;VARCHAR2;Nie;-brak-;Nazwa terapii



THERAPY_COMPANIES
Nazwa kolumny;Typ danych;Nullable;Wartość domyślna;Opis
COMPANIES_ID;NUMBER;Nie;-brak-;Kolumna klucza głównego i obcego (łącząca z tabelą COMPANY)
THERAPIES_ID;NUMBER;Nie;-brak-;Kolumna klucza głównego i obcego (łącząca z tabelą THERAPY)




